…
Majority of US nutrients come from beef, vegetables and baked goods. Would be interesting to see the mean nutrient intake for each food group.

data_df %>% 
  select(FoodGroup, 9:31) %>% 
  group_by(FoodGroup) %>% 
  summarise_all(list(Mean = mean))

## # A tibble: 25 x 24
##    FoodGroup Energy_kcal_Mean Protein_g_Mean Fat_g_Mean Carb_g_Mean
##    <fct>                <dbl>          <dbl>      <dbl>       <dbl>
##  1 American~             209.         16.0       11.1        11.3  
##  2 Baby Foo~             152.          4.11       5.58       21.6  
##  3 Baked Pr~             392.          6.65      14.7        59.8  
##  4 Beef Pro~             213.         24.4       12.4         0.108
##  5 Beverages             111.          2.57       0.985      18.7  
##  6 Breakfas~             342.          8.30       4.00       73.5  
##  7 Cereal G~             286.          9.14       2.16       58.7  
##  8 Dairy an~             232.         14.7       14.0        11.8  
##  9 Fast Foo~             250.         11.7       12.7        22.7  
## 10 Fats and~             626.          0.407     68.1         5.28 
## # ... with 15 more rows, and 19 more variables: Sugar_g_Mean <dbl>,
## #   Fiber_g_Mean <dbl>, VitA_mcg_Mean <dbl>, VitB6_mg_Mean <dbl>,
## #   VitB12_mcg_Mean <dbl>, VitC_mg_Mean <dbl>, VitE_mg_Mean <dbl>,
## #   Folate_mcg_Mean <dbl>, Niacin_mg_Mean <dbl>, Riboflavin_mg_Mean <dbl>,
## #   Thiamin_mg_Mean <dbl>, Calcium_mg_Mean <dbl>, Copper_mcg_Mean <dbl>,
## #   Iron_mg_Mean <dbl>, Magnesium_mg_Mean <dbl>, Manganese_mg_Mean <dbl>,
## #   Phosphorus_mg_Mean <dbl>, Selenium_mcg_Mean <dbl>, Zinc_mg_Mean <dbl>
…
