…
# ggplotly(p)

df %>% 
  filter("Australia" %in% country) %>% 
  group_by(year, name) %>% 
  filter(name == "Alcohol disorders (%)")

## # A tibble: 27 x 5
## # Groups:   year, name [27]
##    country   country_code year  name                  value
##    <fct>     <fct>        <fct> <fct>                 <dbl>
##  1 Australia AUS          1990  Alcohol disorders (%) 0.216
##  2 Australia AUS          1991  Alcohol disorders (%) 0.215
##  3 Australia AUS          1992  Alcohol disorders (%) 0.213
##  4 Australia AUS          1993  Alcohol disorders (%) 0.216
##  5 Australia AUS          1994  Alcohol disorders (%) 0.218
##  6 Australia AUS          1995  Alcohol disorders (%) 0.225
##  7 Australia AUS          1996  Alcohol disorders (%) 0.225
##  8 Australia AUS          1997  Alcohol disorders (%) 0.232
##  9 Australia AUS          1998  Alcohol disorders (%) 0.234
## 10 Australia AUS          1999  Alcohol disorders (%) 0.244
## # ... with 17 more rows
…
